<svg width="64" height="64" viewBox="0 0 64 64" fill="none" xmlns="http://www.w3.org/2000/svg">
<rect width="64" height="64" fill="#E5E5E5"/>
<g clip-path="url(#clip0_2369_9404)">
<rect width="1925" height="8949" transform="translate(-1181 -2263)" fill="white"/>
<rect width="64" height="64" rx="4" fill="#FE4E6E"/>
<g clip-path="url(#clip1_2369_9404)">
<path fill-rule="evenodd" clip-rule="evenodd" d="M30.4997 9.5V12.5C30.4997 13.328 31.1717 14 31.9997 14C32.8277 14 33.4997 13.328 33.4997 12.5V9.5C33.4997 8.672 32.8277 8 31.9997 8C31.1717 8 30.4997 8.672 30.4997 9.5Z" fill="white"/>
<path fill-rule="evenodd" clip-rule="evenodd" d="M37.5607 12.3185L35.4394 14.4398C34.8539 15.0253 34.8539 15.9756 35.4394 16.5611C36.0249 17.1466 36.9752 17.1466 37.5607 16.5611L39.682 14.4398C40.2675 13.8543 40.2675 12.904 39.682 12.3185C39.0965 11.733 38.1462 11.733 37.5607 12.3185Z" fill="white"/>
<path fill-rule="evenodd" clip-rule="evenodd" d="M24.9393 14.4398L27.0606 16.5611C27.6461 17.1466 28.5964 17.1466 29.1819 16.5611C29.7674 15.9756 29.7674 15.0253 29.1819 14.4398L27.0606 12.3185C26.4751 11.733 25.5247 11.733 24.9393 12.3185C24.3538 12.904 24.3538 13.8543 24.9393 14.4398Z" fill="white"/>
<path fill-rule="evenodd" clip-rule="evenodd" d="M41.0002 18.5L38.0002 18.5C37.1722 18.5 36.5002 19.172 36.5002 20C36.5002 20.828 37.1722 21.5 38.0002 21.5L41.0002 21.5C41.8282 21.5 42.5002 20.828 42.5002 20C42.5002 19.172 41.8282 18.5 41.0002 18.5Z" fill="white"/>
<path fill-rule="evenodd" clip-rule="evenodd" d="M23.6211 21.5L26.6211 21.5C27.4491 21.5 28.1211 20.828 28.1211 20C28.1211 19.172 27.4491 18.5 26.6211 18.5L23.6211 18.5C22.7931 18.5 22.1211 19.172 22.1211 20C22.1211 20.828 22.7931 21.5 23.6211 21.5Z" fill="white"/>
<path fill-rule="evenodd" clip-rule="evenodd" d="M30.4997 18.5002V24.5003C30.4997 25.3283 31.1717 26.0003 31.9997 26.0003C32.8277 26.0003 33.4997 25.3283 33.4997 24.5003V18.5002C33.4997 17.6722 32.8277 17.0002 31.9997 17.0002C31.1717 17.0002 30.4997 17.6722 30.4997 18.5002Z" fill="white"/>
<path fill-rule="evenodd" clip-rule="evenodd" d="M32 22.9998C22.8926 22.9998 15.5 30.3924 15.5 39.4998C15.5 48.6071 22.8926 55.9998 32 55.9998C41.1073 55.9998 48.4999 48.6071 48.4999 39.4998C48.4999 30.3924 41.1073 22.9998 32 22.9998ZM32 25.9997C39.451 25.9997 45.4999 32.0487 45.4999 39.4998C45.4999 46.9508 39.451 52.9998 32 52.9998C24.5489 52.9998 18.5 46.9508 18.5 39.4998C18.5 32.0487 24.5489 25.9997 32 25.9997Z" fill="white"/>
<path d="M32 27.7073C25.4376 27.7073 20.1177 33.0272 20.1177 39.5895C20.1177 46.1518 25.4376 51.4718 32 51.4718C38.5624 51.4718 43.8823 46.1518 43.8823 39.5895C43.8823 33.0272 38.5624 27.7073 32 27.7073ZM32 32.7344C32.5048 32.7344 32.914 33.1436 32.914 33.6484V39.2182L36.1988 42.5029C36.5557 42.8599 36.5557 43.4313 36.1988 43.7883C35.8418 44.1453 35.2704 44.1453 34.9134 43.7883C33.7338 42.6037 32.5427 41.3897 31.3573 40.2321C31.1919 40.0668 31.086 39.8419 31.086 39.5895V33.6484C31.086 33.1436 31.4952 32.7344 32 32.7344Z" fill="white"/>
</g>
</g>
<defs>
<clipPath id="clip0_2369_9404">
<rect width="1925" height="8949" fill="white" transform="translate(-1181 -2263)"/>
</clipPath>
<clipPath id="clip1_2369_9404">
<rect width="48" height="48" fill="white" transform="translate(8 8)"/>
</clipPath>
</defs>
</svg>
